<svg width="580" height="800" viewBox="0 0 580 800" fill="none" xmlns="http://www.w3.org/2000/svg">
<path d="M0 0H580V510C580 670.163 450.163 800 290 800V800C129.837 800 0 670.163 0 510V0Z" fill="url(#paint0_linear)"/>
<defs>
<linearGradient id="paint0_linear" x1="0" y1="0" x2="580" y2="800" gradientUnits="userSpaceOnUse">
<stop offset="0.0040563" stop-color="#121212" stop-opacity="0.25"/>
<stop offset="1" stop-color="#121212" stop-opacity="0"/>
</linearGradient>
</defs>
</svg>
